{
  "images" : [
    {
      "idiom" : "universal",
      "filename" : "Captura de Pantalla 2019-10-20 a la(s) 7.15.45 p. m..png",
      "scale" : "1x"
    },
    {
      "idiom" : "universal",
      "scale" : "2x"
    },
    {
      "idiom" : "universal",
      "scale" : "3x"
    }
  ],
  "info" : {
    "version" : 1,
    "author" : "xcode"
  }
}