{
  "images" : [
    {
      "idiom" : "universal",
      "filename" : "Captura de Pantalla 2019-09-30 a la(s) 6.55.41 p. m..png",
      "scale" : "1x"
    },
    {
      "idiom" : "universal",
      "scale" : "2x"
    },
    {
      "idiom" : "universal",
      "scale" : "3x"
    }
  ],
  "info" : {
    "version" : 1,
    "author" : "xcode"
  }
}